[
    {
        "mutualInformation": 0.00649973689378424,
        "samples": 253,
        "variables": [
            {
                "feature": true,
                "field": "click",
                "conditional": [
                    {
                        "negationLift": 1.016326918876258,
                        "samples": 207,
                        "whenVariableStates": [
                            {
                                "index": 1,
                                "state": false,
                                "field": "product.title",
                                "feature": "appl"
                            }
                        ],
                        "frequency": 12,
                        "lift": 0.8180714753788391,
                        "probability": 0.06737059209002204
                    },
                    {
                        "negationLift": 0.9386445429910274,
                        "samples": 46,
                        "whenVariableStates": [
                            {
                                "index": 1,
                                "state": true,
                                "field": "product.title",
                                "feature": "appl"
                            }
                        ],
                        "frequency": 8,
                        "lift": 1.6836750923856951,
                        "probability": 0.13865559584352782
                    }
                ],
                "frequency": 20,
                "index": 0,
                "probability": 0.08235294117647059,
                "variableId": "click:true"
            },
            {
                "feature": "appl",
                "field": "product.title",
                "conditional": [
                    {
                        "negationLift": 1.0138744473678438,
                        "samples": 233,
                        "whenVariableStates": [
                            {
                                "index": 0,
                                "state": false,
                                "field": "click",
                                "feature": true
                            }
                        ],
                        "frequency": 38,
                        "lift": 0.9374489454380646,
                        "probability": 0.17018646557888162
                    },
                    {
                        "negationLift": 0.838562527314939,
                        "samples": 20,
                        "whenVariableStates": [
                            {
                                "index": 0,
                                "state": true,
                                "field": "click",
                                "feature": true
                            }
                        ],
                        "frequency": 8,
                        "lift": 1.727818838079856,
                        "probability": 0.3136718886339054
                    }
                ],
                "frequency": 46,
                "index": 1,
                "probability": 0.18154211640758147,
                "variableId": "product.title:appl"
            }
        ],
        "naiveEntropy": 1.0938551664181706,
        "entropy": 1.0806669914428908
    },
    {
        "mutualInformation": 0.0023445502542358294,
        "samples": 253,
        "variables": [
            {
                "feature": true,
                "field": "click",
                "conditional": [
                    {
                        "negationLift": 1.007703144055385,
                        "samples": 230,
                        "whenVariableStates": [
                            {
                                "index": 1,
                                "state": false,
                                "field": "product.title",
                                "feature": "macbook"
                            }
                        ],
                        "frequency": 16,
                        "lift": 0.9141649662399951,
                        "probability": 0.07528417369035253
                    },
                    {
                        "negationLift": 0.9449756557134217,
                        "samples": 23,
                        "whenVariableStates": [
                            {
                                "index": 1,
                                "state": true,
                                "field": "product.title",
                                "feature": "macbook"
                            }
                        ],
                        "frequency": 4,
                        "lift": 1.6131284077647308,
                        "probability": 0.13284586887474253
                    }
                ],
                "frequency": 20,
                "index": 0,
                "probability": 0.08235294117647059,
                "variableId": "click:true"
            },
            {
                "feature": "macbook",
                "field": "product.title",
                "conditional": [
                    {
                        "negationLift": 1.0059706937014783,
                        "samples": 233,
                        "whenVariableStates": [
                            {
                                "index": 0,
                                "state": false,
                                "field": "click",
                                "feature": true
                            }
                        ],
                        "frequency": 19,
                        "lift": 0.9406072271104768,
                        "probability": 0.08592074348833019
                    },
                    {
                        "negationLift": 0.9351268458962828,
                        "samples": 20,
                        "whenVariableStates": [
                            {
                                "index": 0,
                                "state": true,
                                "field": "click",
                                "feature": true
                            }
                        ],
                        "frequency": 4,
                        "lift": 1.6453180653623465,
                        "probability": 0.1502932864815315
                    }
                ],
                "frequency": 23,
                "index": 1,
                "probability": 0.09134603797620892,
                "variableId": "product.title:macbook"
            }
        ],
        "naiveEntropy": 0.8513629713430875,
        "entropy": 0.841871904857094
    },
    {
        "mutualInformation": 0.0015270140089495548,
        "samples": 253,
        "variables": [
            {
                "feature": true,
                "field": "click",
                "conditional": [
                    {
                        "negationLift": 1.0104440428920234,
                        "samples": 184,
                        "whenVariableStates": [
                            {
                                "index": 1,
                                "state": false,
                                "field": "product.title",
                                "feature": "iphon"
                            }
                        ],
                        "frequency": 12,
                        "lift": 0.8836235220603118,
                        "probability": 0.07276899593437862
                    },
                    {
                        "negationLift": 0.979482569940944,
                        "samples": 69,
                        "whenVariableStates": [
                            {
                                "index": 1,
                                "state": true,
                                "field": "product.title",
                                "feature": "iphon"
                            }
                        ],
                        "frequency": 8,
                        "lift": 1.2286227920866246,
                        "probability": 0.10118070052478084
                    }
                ],
                "frequency": 20,
                "index": 0,
                "probability": 0.08235294117647059,
                "variableId": "click:true"
            },
            {
                "feature": "iphon",
                "field": "product.title",
                "conditional": [
                    {
                        "negationLift": 1.0076471546975756,
                        "samples": 233,
                        "whenVariableStates": [
                            {
                                "index": 0,
                                "state": false,
                                "field": "click",
                                "feature": true
                            }
                        ],
                        "frequency": 61,
                        "lift": 0.9795055285190859,
                        "probability": 0.26616906415455205
                    },
                    {
                        "negationLift": 0.9032165089459495,
                        "samples": 20,
                        "whenVariableStates": [
                            {
                                "index": 0,
                                "state": true,
                                "field": "click",
                                "feature": true
                            }
                        ],
                        "frequency": 8,
                        "lift": 1.2593809822965192,
                        "probability": 0.3422219147437649
                    }
                ],
                "frequency": 69,
                "index": 1,
                "probability": 0.27173819483895406,
                "variableId": "product.title:iphon"
            }
        ],
        "naiveEntropy": 1.254363935560239,
        "entropy": 1.247197870717513
    },
    {
        "mutualInformation": 0.0007277953069148822,
        "samples": 253,
        "variables": [
            {
                "feature": true,
                "field": "click",
                "conditional": [
                    {
                        "negationLift": 0.9975294521409354,
                        "samples": 207,
                        "whenVariableStates": [
                            {
                                "index": 1,
                                "state": false,
                                "field": "product.title",
                                "feature": "s8"
                            }
                        ],
                        "frequency": 18,
                        "lift": 1.0275289618581498,
                        "probability": 0.08462003215302409
                    },
                    {
                        "negationLift": 1.0208820657909254,
                        "samples": 46,
                        "whenVariableStates": [
                            {
                                "index": 1,
                                "state": true,
                                "field": "product.title",
                                "feature": "s8"
                            }
                        ],
                        "frequency": 2,
                        "lift": 0.767314124043975,
                        "probability": 0.06319057492126853
                    }
                ],
                "frequency": 20,
                "index": 0,
                "probability": 0.08235294117647059,
                "variableId": "click:true"
            },
            {
                "feature": "s8",
                "field": "product.title",
                "conditional": [
                    {
                        "negationLift": 0.9955994146936845,
                        "samples": 233,
                        "whenVariableStates": [
                            {
                                "index": 0,
                                "state": false,
                                "field": "click",
                                "feature": true
                            }
                        ],
                        "frequency": 44,
                        "lift": 1.0198394389557996,
                        "probability": 0.18514381014395634
                    },
                    {
                        "negationLift": 1.048053508300278,
                        "samples": 20,
                        "whenVariableStates": [
                            {
                                "index": 0,
                                "state": true,
                                "field": "click",
                                "feature": true
                            }
                        ],
                        "frequency": 2,
                        "lift": 0.7833573085909352,
                        "probability": 0.1422123437049453
                    }
                ],
                "frequency": 46,
                "index": 1,
                "probability": 0.18154211640758147,
                "variableId": "product.title:s8"
            }
        ],
        "naiveEntropy": 1.0938551664181706,
        "entropy": 1.0877668884166205
    },
    {
        "mutualInformation": 0.0007277953069148822,
        "samples": 253,
        "variables": [
            {
                "feature": true,
                "field": "click",
                "conditional": [
                    {
                        "negationLift": 0.9975294521409354,
                        "samples": 207,
                        "whenVariableStates": [
                            {
                                "index": 1,
                                "state": false,
                                "field": "product.title",
                                "feature": "samsung"
                            }
                        ],
                        "frequency": 18,
                        "lift": 1.0275289618581498,
                        "probability": 0.08462003215302409
                    },
                    {
                        "negationLift": 1.0208820657909254,
                        "samples": 46,
                        "whenVariableStates": [
                            {
                                "index": 1,
                                "state": true,
                                "field": "product.title",
                                "feature": "samsung"
                            }
                        ],
                        "frequency": 2,
                        "lift": 0.767314124043975,
                        "probability": 0.06319057492126853
                    }
                ],
                "frequency": 20,
                "index": 0,
                "probability": 0.08235294117647059,
                "variableId": "click:true"
            },
            {
                "feature": "samsung",
                "field": "product.title",
                "conditional": [
                    {
                        "negationLift": 0.9955994146936845,
                        "samples": 233,
                        "whenVariableStates": [
                            {
                                "index": 0,
                                "state": false,
                                "field": "click",
                                "feature": true
                            }
                        ],
                        "frequency": 44,
                        "lift": 1.0198394389557996,
                        "probability": 0.18514381014395634
                    },
                    {
                        "negationLift": 1.048053508300278,
                        "samples": 20,
                        "whenVariableStates": [
                            {
                                "index": 0,
                                "state": true,
                                "field": "click",
                                "feature": true
                            }
                        ],
                        "frequency": 2,
                        "lift": 0.7833573085909352,
                        "probability": 0.1422123437049453
                    }
                ],
                "frequency": 46,
                "index": 1,
                "probability": 0.18154211640758147,
                "variableId": "product.title:samsung"
            }
        ],
        "naiveEntropy": 1.0938551664181706,
        "entropy": 1.0877668884166205
    },
    {
        "mutualInformation": 0.000626970897852843,
        "samples": 253,
        "variables": [
            {
                "feature": true,
                "field": "click",
                "conditional": [
                    {
                        "negationLift": 1.0046295982361018,
                        "samples": 230,
                        "whenVariableStates": [
                            {
                                "index": 1,
                                "state": false,
                                "field": "product.title",
                                "feature": "honor"
                            }
                        ],
                        "frequency": 17,
                        "lift": 0.9484130482262949,
                        "probability": 0.07810460397157723
                    },
                    {
                        "negationLift": 0.9736944241218828,
                        "samples": 23,
                        "whenVariableStates": [
                            {
                                "index": 1,
                                "state": true,
                                "field": "product.title",
                                "feature": "honor"
                            }
                        ],
                        "frequency": 3,
                        "lift": 1.2931192740704491,
                        "probability": 0.10649217551168405
                    }
                ],
                "frequency": 20,
                "index": 0,
                "probability": 0.08235294117647059,
                "variableId": "click:true"
            },
            {
                "feature": "honor",
                "field": "product.title",
                "conditional": [
                    {
                        "negationLift": 1.0030565854545983,
                        "samples": 233,
                        "whenVariableStates": [
                            {
                                "index": 0,
                                "state": false,
                                "field": "click",
                                "feature": true
                            }
                        ],
                        "frequency": 20,
                        "lift": 0.9695949759276006,
                        "probability": 0.08856865949262398
                    },
                    {
                        "negationLift": 0.9681757003239282,
                        "samples": 20,
                        "whenVariableStates": [
                            {
                                "index": 0,
                                "state": true,
                                "field": "click",
                                "feature": true
                            }
                        ],
                        "frequency": 3,
                        "lift": 1.316568475545995,
                        "probability": 0.12026331396550395
                    }
                ],
                "frequency": 23,
                "index": 1,
                "probability": 0.09134603797620892,
                "variableId": "product.title:honor"
            }
        ],
        "naiveEntropy": 0.8513629713430875,
        "entropy": 0.8442284818785079
    },
    {
        "mutualInformation": 0.000626970897852843,
        "samples": 253,
        "variables": [
            {
                "feature": true,
                "field": "click",
                "conditional": [
                    {
                        "negationLift": 1.0046295982361018,
                        "samples": 230,
                        "whenVariableStates": [
                            {
                                "index": 1,
                                "state": false,
                                "field": "product.title",
                                "feature": "huawei"
                            }
                        ],
                        "frequency": 17,
                        "lift": 0.9484130482262949,
                        "probability": 0.07810460397157723
                    },
                    {
                        "negationLift": 0.9736944241218828,
                        "samples": 23,
                        "whenVariableStates": [
                            {
                                "index": 1,
                                "state": true,
                                "field": "product.title",
                                "feature": "huawei"
                            }
                        ],
                        "frequency": 3,
                        "lift": 1.2931192740704491,
                        "probability": 0.10649217551168405
                    }
                ],
                "frequency": 20,
                "index": 0,
                "probability": 0.08235294117647059,
                "variableId": "click:true"
            },
            {
                "feature": "huawei",
                "field": "product.title",
                "conditional": [
                    {
                        "negationLift": 1.0030565854545983,
                        "samples": 233,
                        "whenVariableStates": [
                            {
                                "index": 0,
                                "state": false,
                                "field": "click",
                                "feature": true
                            }
                        ],
                        "frequency": 20,
                        "lift": 0.9695949759276006,
                        "probability": 0.08856865949262398
                    },
                    {
                        "negationLift": 0.9681757003239282,
                        "samples": 20,
                        "whenVariableStates": [
                            {
                                "index": 0,
                                "state": true,
                                "field": "click",
                                "feature": true
                            }
                        ],
                        "frequency": 3,
                        "lift": 1.316568475545995,
                        "probability": 0.12026331396550395
                    }
                ],
                "frequency": 23,
                "index": 1,
                "probability": 0.09134603797620892,
                "variableId": "product.title:huawei"
            }
        ],
        "naiveEntropy": 0.8513629713430875,
        "entropy": 0.8442284818785079
    }
]