{
  "schema": {

    "customers": {
      "type":"table",
      "columns": {
        "id"   : {"type": "Int" },
        "name" : {"type": "String" },
        "tags" : {"type": "Text", "analyzer": "Whitespace" }
      }
    },

    "products": {
      "type":"table",
      "columns": {
        "id"          : { "type": "Int" },
        "title"       : { "type": "Text",  "analyzer": "English" },
        "tags"        : { "type": "Text",  "analyzer": "Whitespace" },
        "price"       : { "type": "Decimal"},
        "description" : { "type": "Text",  "analyzer": "English" }
      }
    },

    "impressions": {
      "type":"table",
      "columns": {
        "prevProduct" : { "type": "Int", "nullable":true, "link": "products.id" },
        "customer" :    { "type": "Int", "link": "customers.id" },
        "product" :     { "type": "Int", "link": "products.id" },
        "query" :       { "type": "Text", "analyzer": "English" },
        "click" :       { "type": "Boolean" }
      }
    }

  }
}
